{
  "add": "\\e900",
  "arrow-down": "\\e901",
  "arrow-down-small": "\\e902",
  "arrow-left": "\\e903",
  "arrow-up-small": "\\e904",
  "arrow-up": "\\e905",
  "bank": "\\e906",
  "bridge": "\\e907",
  "check-circle": "\\e908",
  "check": "\\e909",
  "chevron-left": "\\e90a",
  "chevron-right": "\\e90b",
  "clock": "\\e90c",
  "coins": "\\e90d",
  "copy": "\\e90e",
  "cross-circle": "\\e90f",
  "cross": "\\e910",
  "dark-theme": "\\e911",
  "dashboard": "\\e912",
  "delete": "\\e913",
  "double-check": "\\e914",
  "download": "\\e915",
  "edit": "\\e916",
  "expand-less": "\\e917",
  "expand-more": "\\e918",
  "explorer": "\\e919",
  "external-link": "\\e91a",
  "first": "\\e91b",
  "folder": "\\e91c",
  "gitlab": "\\e91d",
  "gnosis-safe": "\\e91e",
  "hammer": "\\e91f",
  "handshake": "\\e920",
  "info": "\\e921",
  "last": "\\e922",
  "light-theme": "\\e923",
  "list-square": "\\e924",
  "list": "\\e925",
  "manage": "\\e926",
  "medium": "\\e927",
  "message": "\\e928",
  "monitor": "\\e929",
  "more-vertical": "\\e92a",
  "reddit": "\\e92b",
  "refresh": "\\e92c",
  "reward": "\\e92d",
  "search": "\\e92f",
  "settings": "\\e930",
  "share": "\\e931",
  "sign-out": "\\e932",
  "stake": "\\e933",
  "vote": "\\e934",
  "wallet": "\\e935",
  "warning": "\\e936"
}